{"hash":"db8e34eb788163fcb1a8c1549fc208c6589dc84f","data":{"allWordPressPost":{"pageInfo":{"totalPages":3,"currentPage":3,"totalItems":7},"edges":[{"node":{"title":"Привет, мир!","path":"/2021/09/25/d0-bf-d1-80-d0-b8-d0-b2-d0-b5-d1-82-d0-bc-d0-b8-d1-80/","excerpt":"<p>Добро пожаловать в WordPress. Это ваша первая запись. Отредактируйте или удалите ее, затем [&hellip;]</p>\n","featuredMedia":null}}]}},"context":{}}