{"hash":"db8e34eb788163fcb1a8c1549fc208c6589dc84f","data":{"allWordPressPost":{"pageInfo":{"totalPages":3,"currentPage":2,"totalItems":7},"edges":[{"node":{"title":"Что такое уровень pH кожи и как подобрать косметику?","path":"/2021/09/26/chto-takoe-uroven-ph-kozhi-i-kak-podobrat-kosmetiku/","excerpt":"<p>Чтобы уход за кожей был комплексным, а результат видимым, нужно знать все нюансы. [&hellip;]</p>\n","featuredMedia":{"sourceUrl":"http://beautyhub/wp-content/uploads/2021/09/news4.png","altText":"","mediaDetails":{"width":450}}}},{"node":{"title":"Все о перманентном макияже","path":"/2021/09/26/vse-o-permanentnom-makiyazhe/","excerpt":"<p>Сегодня мы поговорим о том, что такое перманентный макияж, какие техники нанесения бывает [&hellip;]</p>\n","featuredMedia":{"sourceUrl":"http://beautyhub/wp-content/uploads/2021/09/news3.png","altText":"","mediaDetails":{"width":450}}}},{"node":{"title":"Аппаратный vs классический: какой маникюр лучше выбрать?","path":"/2021/09/26/apparatnyj-vs-klassicheskij-kakoj-manikyur-luchshe-vybrat/","excerpt":"<p>Несмотря на огромную популярность услуги, многие девушки до сих пор предпочитают делать маникюр [&hellip;]</p>\n","featuredMedia":{"sourceUrl":"http://beautyhub/wp-content/uploads/2021/09/news1.png","altText":"","mediaDetails":{"width":450}}}}]}},"context":{}}