{"hash":"db8e34eb788163fcb1a8c1549fc208c6589dc84f","data":{"allWordPressPost":{"pageInfo":{"totalPages":3,"currentPage":1,"totalItems":7},"edges":[{"node":{"title":"Экспресс маски на лето","path":"/2021/09/26/ekspress-maski-na-leto/","excerpt":"<p>Летом кожа требует особого внимания, потому что встреча с долгожданным солнышком — это [&hellip;]</p>\n","featuredMedia":{"sourceUrl":"http://beautyhub/wp-content/uploads/2021/09/single_bg.png","altText":"","mediaDetails":{"width":1410}}}},{"node":{"title":"Продукты, которые разрушают женское здоровье","path":"/2021/09/26/produkty-kotorye-razrushayut-zhenskoe-zdorove/","excerpt":"<p>Мы недавно рассказывали о Продуктах, которые содержат много углеводов, и которые следует уменьшать [&hellip;]</p>\n","featuredMedia":{"sourceUrl":"http://beautyhub/wp-content/uploads/2021/09/news6.png","altText":"","mediaDetails":{"width":450}}}},{"node":{"title":"Новинки среди услуг красоты","path":"/2021/09/26/novinki-sredi-uslug-krasoty/","excerpt":"<p>Натуральная красота вышла на первый план и все уже поняли, что слой мастерски [&hellip;]</p>\n","featuredMedia":{"sourceUrl":"http://beautyhub/wp-content/uploads/2021/09/news5.png","altText":"","mediaDetails":{"width":450}}}}]}},"context":{}}